{
    "resource_version": 145,
    "metadata": {
        "version": 3,
        "sources": [
            {
                "name": "default",
                "kind": "postgres",
                "tables": [
                    {
                        "table": {
                            "schema": "versioned",
                            "name": "issues"
                        },
                        "configuration": {
                            "custom_root_fields": {
                                "select": "versionedIssues",
                                "select_by_pk": "versionedIssue",
                                "insert": "insertIssues",
                                "insert_one": "insertIssue"
                            },
                            "custom_name": "versionedIssues",
                            "custom_column_names": {
                                "created_at": "createdAt",
                                "created_by": "createdBy",
                                "estimated_cost": "estimatedCost",
                                "requires_owner_approval": "requiresOwnerApproval",
                                "requires_external_specialist": "requiresExternalSpecialist",
                                "property_id": "propertyId",
                                "property_ver": "propertyVer",
                                "urgency_level_id": "urgencyLevelId",
                                "urgency_level_ver": "urgencyLevelVer"
                            }
                        },
                        "array_relationships": [],
                        "object_relationships": [
                            {
                                "name": "property",
                                "using": {
                                    "manual_configuration": {
                                        "remote_table": {
                                            "schema": "versioned",
                                            "name": "properties"
                                        },
                                        "insertion_order": null,
                                        "column_mapping": {
                                            "property_id": "id",
                                            "property_ver": "ver"
                                        }
                                    }
                                }
                            },
                            {
                                "name": "urgencyLevel",
                                "using": {
                                    "manual_configuration": {
                                        "remote_table": {
                                            "schema": "versioned",
                                            "name": "urgency_levels"
                                        },
                                        "insertion_order": null,
                                        "column_mapping": {
                                            "urgency_level_id": "id",
                                            "urgency_level_ver": "ver"
                                        }
                                    }
                                }
                            }
                        ]
                    },
                    {
                        "table": {
                            "schema": "versioned",
                            "name": "properties"
                        },
                        "configuration": {
                            "custom_root_fields": {
                                "select": "versionedProperties",
                                "select_by_pk": "versionedProperty",
                                "insert": "insertProperties",
                                "insert_one": "insertProperty"
                            },
                            "custom_name": "versionedProperties",
                            "custom_column_names": {
                                "created_at": "createdAt",
                                "created_by": "createdBy"
                            }
                        },
                        "array_relationships": [
                            {
                                "name": "issues",
                                "using": {
                                    "manual_configuration": {
                                        "remote_table": {
                                            "schema": "versioned",
                                            "name": "issues"
                                        },
                                        "insertion_order": null,
                                        "column_mapping": {
                                            "id": "property_id",
                                            "ver": "property_ver"
                                        }
                                    }
                                }
                            }
                        ],
                        "object_relationships": []
                    },
                    {
                        "table": {
                            "schema": "versioned",
                            "name": "urgency_levels"
                        },
                        "configuration": {
                            "custom_root_fields": {
                                "select": "versionedUrgencyLevels",
                                "select_by_pk": "versionedUrgencyLevel",
                                "insert": "insertUrgencyLevels",
                                "insert_one": "insertUrgencyLevel"
                            },
                            "custom_name": "versionedUrgencyLevels",
                            "custom_column_names": {
                                "created_at": "createdAt",
                                "created_by": "createdBy"
                            }
                        },
                        "array_relationships": [
                            {
                                "name": "issues",
                                "using": {
                                    "manual_configuration": {
                                        "remote_table": {
                                            "schema": "versioned",
                                            "name": "issues"
                                        },
                                        "insertion_order": null,
                                        "column_mapping": {
                                            "id": "urgency_level_id",
                                            "ver": "urgency_level_ver"
                                        }
                                    }
                                }
                            }
                        ],
                        "object_relationships": []
                    },
                    {
                        "table": {
                            "schema": "public",
                            "name": "issues"
                        },
                        "configuration": {
                            "custom_root_fields": {
                                "select": "issues",
                                "select_by_pk": "issue"
                            },
                            "custom_name": "issues",
                            "custom_column_names": {
                                "created_at": "createdAt",
                                "updated_at": "updatedAt",
                                "created_by": "createdBy",
                                "estimated_cost": "estimatedCost",
                                "requires_owner_approval": "requiresOwnerApproval",
                                "requires_external_specialist": "requiresExternalSpecialist",
                                "property_id": "propertyId",
                                "property_ver": "propertyVer",
                                "urgency_level_id": "urgencyLevelId",
                                "urgency_level_ver": "urgencyLevelVer"
                            }
                        },
                        "array_relationships": [],
                        "object_relationships": [
                            {
                                "name": "property",
                                "using": {
                                    "manual_configuration": {
                                        "remote_table": {
                                            "schema": "public",
                                            "name": "properties"
                                        },
                                        "insertion_order": null,
                                        "column_mapping": {
                                            "property_id": "id"
                                        }
                                    }
                                }
                            },
                            {
                                "name": "urgencyLevel",
                                "using": {
                                    "manual_configuration": {
                                        "remote_table": {
                                            "schema": "public",
                                            "name": "urgency_levels"
                                        },
                                        "insertion_order": null,
                                        "column_mapping": {
                                            "urgency_level_id": "id"
                                        }
                                    }
                                }
                            }
                        ]
                    },
                    {
                        "table": {
                            "schema": "public",
                            "name": "properties"
                        },
                        "configuration": {
                            "custom_root_fields": {
                                "select": "properties",
                                "select_by_pk": "property"
                            },
                            "custom_name": "properties",
                            "custom_column_names": {
                                "created_at": "createdAt",
                                "updated_at": "updatedAt",
                                "created_by": "createdBy"
                            }
                        },
                        "array_relationships": [
                            {
                                "name": "issues",
                                "using": {
                                    "manual_configuration": {
                                        "remote_table": {
                                            "schema": "public",
                                            "name": "issues"
                                        },
                                        "insertion_order": null,
                                        "column_mapping": {
                                            "id": "property_id"
                                        }
                                    }
                                }
                            }
                        ],
                        "object_relationships": []
                    },
                    {
                        "table": {
                            "schema": "public",
                            "name": "urgency_levels"
                        },
                        "configuration": {
                            "custom_root_fields": {
                                "select": "urgencyLevels",
                                "select_by_pk": "urgencyLevel"
                            },
                            "custom_name": "urgencyLevels",
                            "custom_column_names": {
                                "created_at": "createdAt",
                                "updated_at": "updatedAt",
                                "created_by": "createdBy"
                            }
                        },
                        "array_relationships": [
                            {
                                "name": "issues",
                                "using": {
                                    "manual_configuration": {
                                        "remote_table": {
                                            "schema": "public",
                                            "name": "issues"
                                        },
                                        "insertion_order": null,
                                        "column_mapping": {
                                            "id": "urgency_level_id"
                                        }
                                    }
                                }
                            }
                        ],
                        "object_relationships": []
                    }
                ],
                "configuration": {
                    "connection_info": {
                        "use_prepared_statements": false,
                        "database_url": {
                            "from_env": "PG_DATABASE_URL"
                        },
                        "isolation_level": "read-committed"
                    }
                }
            }
        ]
    }
}